SDS 192 Mini-Project 3
…
#Converting the CRS 
crs_total_released_factories <- total_released_factories |>
  st_as_sf(coords = c("X13..LONGITUDE", "X12..LATITUDE"), crs = 4269) |>
  st_transform(crs = 4326)

stack_air_data |>
  st_as_sf(coords = c("X13..LONGITUDE", "X12..LATITUDE"), crs = 4269) |>
  st_transform(crs = 4326)

Simple feature collection with 219 features and 4 fields
Geometry type: POINT
Dimension:     XY
Bounding box:  xmin: -97.02677 ymin: 32.54904 xmax: -96.56278 ymax: 32.98115
Geodetic CRS:  WGS 84
# A tibble: 219 × 5
   X4..FACILITY.NAME           X5..S…¹ Type_…² Value…³             geometry
 * <chr>                       <chr>   <chr>     <dbl>          <POINT [°]>
 1 TXI - PORTABLE 904 - PIKE … 2500 E… Stack …   0.03  (-96.70847 32.58622)
 2 SHERWIN-WILLIAMS CO         701 SH… Stack … 271     (-96.66639 32.90556)
 3 MARTIN SPROCKET & GEAR INC  2944 O… Stack …   1.52  (-96.77276 32.77718)
 4 VERSUM MATERIALS US LLC     8201 S… Stack …   4     (-96.75083 32.70722)
 5 SHERWIN-WILLIAMS CO         701 SH… Stack …  16     (-96.66639 32.90556)
 6 SHERWIN-WILLIAMS CO         701 SH… Stack … 771     (-96.66639 32.90556)
 7 WESTERN EXTRUSIONS CORP     1735 S… Stack … 965.    (-96.92269 32.96858)
 8 BRENNTAG SOUTHWEST INC LAN… 704 E … Stack … 540     (-96.74389 32.61583)
 9 TXI-SPANGLER ROAD READY MIX 10610 … Stack …   0.027 (-96.91317 32.87268)
10 MOTIVA ENTERPRISES LLC DAL… 3900 S… Stack …  18     (-96.88443 32.77884)
# … with 209 more rows, and abbreviated variable names ¹​X5..STREET.ADDRESS,
#   ²​Type_of_Release, ³​Values_Pounds
…
#Converting the CRS 
crs_total_released_factories <- total_released_factories |>
  st_as_sf(coords = c("X13..LONGITUDE", "X12..LATITUDE"), crs = 4269) |>
  st_transform(crs = 4326)

stack_air_data |>
  st_as_sf(coords = c("X13..LONGITUDE", "X12..LATITUDE"), crs = 4269) |>
  st_transform(crs = 4326)

Simple feature collection with 219 features and 4 fields
Geometry type: POINT
Dimension:     XY
Bounding box:  xmin: -97.02677 ymin: 32.54904 xmax: -96.56278 ymax: 32.98115
Geodetic CRS:  WGS 84
# A tibble: 219 × 5
   X4..FACILITY.NAME           X5..S…¹ Type_…² Value…³             geometry
 * <chr>                       <chr>   <chr>     <dbl>          <POINT [°]>
 1 TXI - PORTABLE 904 - PIKE … 2500 E… Stack …   0.03  (-96.70847 32.58622)
 2 SHERWIN-WILLIAMS CO         701 SH… Stack … 271     (-96.66639 32.90556)
 3 MARTIN SPROCKET & GEAR INC  2944 O… Stack …   1.52  (-96.77276 32.77718)
 4 VERSUM MATERIALS US LLC     8201 S… Stack …   4     (-96.75083 32.70722)
 5 SHERWIN-WILLIAMS CO         701 SH… Stack …  16     (-96.66639 32.90556)
 6 SHERWIN-WILLIAMS CO         701 SH… Stack … 771     (-96.66639 32.90556)
 7 WESTERN EXTRUSIONS CORP     1735 S… Stack … 965.    (-96.92269 32.96858)
 8 BRENNTAG SOUTHWEST INC LAN… 704 E … Stack … 540     (-96.74389 32.61583)
 9 TXI-SPANGLER ROAD READY MIX 10610 … Stack …   0.027 (-96.91317 32.87268)
10 MOTIVA ENTERPRISES LLC DAL… 3900 S… Stack …  18     (-96.88443 32.77884)
# … with 209 more rows, and abbreviated variable names ¹​X5..STREET.ADDRESS,
#   ²​Type_of_Release, ³​Values_Pounds
…
#Converting the CRS 
crs_total_released_factories <- total_released_factories |>
  st_as_sf(coords = c("X13..LONGITUDE", "X12..LATITUDE"), crs = 4269) |>
  st_transform(crs = 4326)

stack_air_data |>
  st_as_sf(coords = c("X13..LONGITUDE", "X12..LATITUDE"), crs = 4269) |>
  st_transform(crs = 4326)

Simple feature collection with 219 features and 4 fields
Geometry type: POINT
Dimension:     XY
Bounding box:  xmin: -97.02677 ymin: 32.54904 xmax: -96.56278 ymax: 32.98115
Geodetic CRS:  WGS 84
# A tibble: 219 × 5
   X4..FACILITY.NAME           X5..S…¹ Type_…² Value…³             geometry
 * <chr>                       <chr>   <chr>     <dbl>          <POINT [°]>
 1 TXI - PORTABLE 904 - PIKE … 2500 E… Stack …   0.03  (-96.70847 32.58622)
 2 SHERWIN-WILLIAMS CO         701 SH… Stack … 271     (-96.66639 32.90556)
 3 MARTIN SPROCKET & GEAR INC  2944 O… Stack …   1.52  (-96.77276 32.77718)
 4 VERSUM MATERIALS US LLC     8201 S… Stack …   4     (-96.75083 32.70722)
 5 SHERWIN-WILLIAMS CO         701 SH… Stack …  16     (-96.66639 32.90556)
 6 SHERWIN-WILLIAMS CO         701 SH… Stack … 771     (-96.66639 32.90556)
 7 WESTERN EXTRUSIONS CORP     1735 S… Stack … 965.    (-96.92269 32.96858)
 8 BRENNTAG SOUTHWEST INC LAN… 704 E … Stack … 540     (-96.74389 32.61583)
 9 TXI-SPANGLER ROAD READY MIX 10610 … Stack …   0.027 (-96.91317 32.87268)
10 MOTIVA ENTERPRISES LLC DAL… 3900 S… Stack …  18     (-96.88443 32.77884)
# … with 209 more rows, and abbreviated variable names ¹​X5..STREET.ADDRESS,
#   ²​Type_of_Release, ³​Values_Pounds
…
